{
  "aggregate": {
    "timestamp": "2018-09-19T11:38:36.095Z",
    "scenariosCreated": 1,
    "scenariosCompleted": 1,
    "requestsCompleted": 9,
    "latency": {
      "min": 301.6,
      "max": 114456.7,
      "median": 366.1,
      "p95": 114456.7,
      "p99": 114456.7
    },
    "rps": {
      "count": 9,
      "mean": 0.08
    },
    "scenarioDuration": {
      "min": 118991.7,
      "max": 118991.7,
      "median": 118991.7,
      "p95": 118991.7,
      "p99": 118991.7
    },
    "scenarioCounts": {
      "AllEndpoints": 1
    },
    "errors": {},
    "codes": {
      "200": 5,
      "204": 4
    },
    "matches": 0,
    "customStats": {},
    "counters": {},
    "phases": [
      {
        "duration": 1,
        "arrivalRate": 1
      }
    ]
  },
  "intermediate": [
    {
      "timestamp": "2018-09-19T11:36:46.008Z",
      "scenariosCreated": 1,
      "scenariosCompleted": 0,
      "requestsCompleted": 0,
      "latency": {
        "min": null,
        "max": null,
        "median": null,
        "p95": null,
        "p99": null
      },
      "rps": {
        "count": 1,
        "mean": 0.11
      },
      "scenarioDuration": {
        "min": null,
        "max": null,
        "median": null,
        "p95": null,
        "p99": null
      },
      "scenarioCounts": {
        "AllEndpoints": 1
      },
      "errors": {},
      "codes": {},
      "matches": 0,
      "latencies": [],
      "customStats": {},
      "counters": {},
      "concurrency": 1,
      "pendingRequests": 1
    },
    {
      "timestamp": "2018-09-19T11:36:56.010Z",
      "scenariosCreated": 0,
      "scenariosCompleted": 0,
      "requestsCompleted": 0,
      "latency": {
        "min": null,
        "max": null,
        "median": null,
        "p95": null,
        "p99": null
      },
      "rps": {
        "count": 0,
        "mean": null
      },
      "scenarioDuration": {
        "min": null,
        "max": null,
        "median": null,
        "p95": null,
        "p99": null
      },
      "scenarioCounts": {},
      "errors": {},
      "codes": {},
      "matches": 0,
      "latencies": [],
      "customStats": {},
      "counters": {},
      "concurrency": 1,
      "pendingRequests": 1
    },
    {
      "timestamp": "2018-09-19T11:37:06.012Z",
      "scenariosCreated": 0,
      "scenariosCompleted": 0,
      "requestsCompleted": 0,
      "latency": {
        "min": null,
        "max": null,
        "median": null,
        "p95": null,
        "p99": null
      },
      "rps": {
        "count": 0,
        "mean": null
      },
      "scenarioDuration": {
        "min": null,
        "max": null,
        "median": null,
        "p95": null,
        "p99": null
      },
      "scenarioCounts": {},
      "errors": {},
      "codes": {},
      "matches": 0,
      "latencies": [],
      "customStats": {},
      "counters": {},
      "concurrency": 1,
      "pendingRequests": 1
    },
    {
      "timestamp": "2018-09-19T11:37:16.014Z",
      "scenariosCreated": 0,
      "scenariosCompleted": 0,
      "requestsCompleted": 0,
      "latency": {
        "min": null,
        "max": null,
        "median": null,
        "p95": null,
        "p99": null
      },
      "rps": {
        "count": 0,
        "mean": null
      },
      "scenarioDuration": {
        "min": null,
        "max": null,
        "median": null,
        "p95": null,
        "p99": null
      },
      "scenarioCounts": {},
      "errors": {},
      "codes": {},
      "matches": 0,
      "latencies": [],
      "customStats": {},
      "counters": {},
      "concurrency": 1,
      "pendingRequests": 1
    },
    {
      "timestamp": "2018-09-19T11:37:26.015Z",
      "scenariosCreated": 0,
      "scenariosCompleted": 0,
      "requestsCompleted": 0,
      "latency": {
        "min": null,
        "max": null,
        "median": null,
        "p95": null,
        "p99": null
      },
      "rps": {
        "count": 0,
        "mean": null
      },
      "scenarioDuration": {
        "min": null,
        "max": null,
        "median": null,
        "p95": null,
        "p99": null
      },
      "scenarioCounts": {},
      "errors": {},
      "codes": {},
      "matches": 0,
      "latencies": [],
      "customStats": {},
      "counters": {},
      "concurrency": 1,
      "pendingRequests": 1
    },
    {
      "timestamp": "2018-09-19T11:37:36.018Z",
      "scenariosCreated": 0,
      "scenariosCompleted": 0,
      "requestsCompleted": 0,
      "latency": {
        "min": null,
        "max": null,
        "median": null,
        "p95": null,
        "p99": null
      },
      "rps": {
        "count": 0,
        "mean": null
      },
      "scenarioDuration": {
        "min": null,
        "max": null,
        "median": null,
        "p95": null,
        "p99": null
      },
      "scenarioCounts": {},
      "errors": {},
      "codes": {},
      "matches": 0,
      "latencies": [],
      "customStats": {},
      "counters": {},
      "concurrency": 1,
      "pendingRequests": 1
    },
    {
      "timestamp": "2018-09-19T11:37:46.019Z",
      "scenariosCreated": 0,
      "scenariosCompleted": 0,
      "requestsCompleted": 0,
      "latency": {
        "min": null,
        "max": null,
        "median": null,
        "p95": null,
        "p99": null
      },
      "rps": {
        "count": 0,
        "mean": null
      },
      "scenarioDuration": {
        "min": null,
        "max": null,
        "median": null,
        "p95": null,
        "p99": null
      },
      "scenarioCounts": {},
      "errors": {},
      "codes": {},
      "matches": 0,
      "latencies": [],
      "customStats": {},
      "counters": {},
      "concurrency": 1,
      "pendingRequests": 1
    },
    {
      "timestamp": "2018-09-19T11:37:56.021Z",
      "scenariosCreated": 0,
      "scenariosCompleted": 0,
      "requestsCompleted": 0,
      "latency": {
        "min": null,
        "max": null,
        "median": null,
        "p95": null,
        "p99": null
      },
      "rps": {
        "count": 0,
        "mean": null
      },
      "scenarioDuration": {
        "min": null,
        "max": null,
        "median": null,
        "p95": null,
        "p99": null
      },
      "scenarioCounts": {},
      "errors": {},
      "codes": {},
      "matches": 0,
      "latencies": [],
      "customStats": {},
      "counters": {},
      "concurrency": 1,
      "pendingRequests": 1
    },
    {
      "timestamp": "2018-09-19T11:38:06.023Z",
      "scenariosCreated": 0,
      "scenariosCompleted": 0,
      "requestsCompleted": 0,
      "latency": {
        "min": null,
        "max": null,
        "median": null,
        "p95": null,
        "p99": null
      },
      "rps": {
        "count": 0,
        "mean": null
      },
      "scenarioDuration": {
        "min": null,
        "max": null,
        "median": null,
        "p95": null,
        "p99": null
      },
      "scenarioCounts": {},
      "errors": {},
      "codes": {},
      "matches": 0,
      "latencies": [],
      "customStats": {},
      "counters": {},
      "concurrency": 1,
      "pendingRequests": 1
    },
    {
      "timestamp": "2018-09-19T11:38:16.025Z",
      "scenariosCreated": 0,
      "scenariosCompleted": 0,
      "requestsCompleted": 0,
      "latency": {
        "min": null,
        "max": null,
        "median": null,
        "p95": null,
        "p99": null
      },
      "rps": {
        "count": 0,
        "mean": null
      },
      "scenarioDuration": {
        "min": null,
        "max": null,
        "median": null,
        "p95": null,
        "p99": null
      },
      "scenarioCounts": {},
      "errors": {},
      "codes": {},
      "matches": 0,
      "latencies": [],
      "customStats": {},
      "counters": {},
      "concurrency": 1,
      "pendingRequests": 1
    },
    {
      "timestamp": "2018-09-19T11:38:26.027Z",
      "scenariosCreated": 0,
      "scenariosCompleted": 0,
      "requestsCompleted": 0,
      "latency": {
        "min": null,
        "max": null,
        "median": null,
        "p95": null,
        "p99": null
      },
      "rps": {
        "count": 0,
        "mean": null
      },
      "scenarioDuration": {
        "min": null,
        "max": null,
        "median": null,
        "p95": null,
        "p99": null
      },
      "scenarioCounts": {},
      "errors": {},
      "codes": {},
      "matches": 0,
      "latencies": [],
      "customStats": {},
      "counters": {},
      "concurrency": 1,
      "pendingRequests": 1
    },
    {
      "timestamp": "2018-09-19T11:38:36.031Z",
      "scenariosCreated": 0,
      "scenariosCompleted": 1,
      "requestsCompleted": 9,
      "latency": {
        "min": 301.6,
        "max": 114456.7,
        "median": 366.1,
        "p95": 114456.7,
        "p99": 114456.7
      },
      "rps": {
        "count": 8,
        "mean": 1.79
      },
      "scenarioDuration": {
        "min": 118991.7,
        "max": 118991.7,
        "median": 118991.7,
        "p95": 118991.7,
        "p99": 118991.7
      },
      "scenarioCounts": {},
      "errors": {},
      "codes": {
        "200": 5,
        "204": 4
      },
      "matches": 0,
      "latencies": [
        [
          1537357111542,
          "6acb9625-c60e-47a4-a347-fbe5c2b880c2",
          114456726093,
          204
        ],
        [
          1537357113491,
          "6acb9625-c60e-47a4-a347-fbe5c2b880c2",
          1934483839,
          204
        ],
        [
          1537357113876,
          "6acb9625-c60e-47a4-a347-fbe5c2b880c2",
          379241970,
          204
        ],
        [
          1537357114270,
          "6acb9625-c60e-47a4-a347-fbe5c2b880c2",
          388983252,
          200
        ],
        [
          1537357114623,
          "6acb9625-c60e-47a4-a347-fbe5c2b880c2",
          342308992,
          200
        ],
        [
          1537357114965,
          "6acb9625-c60e-47a4-a347-fbe5c2b880c2",
          332045372,
          200
        ],
        [
          1537357115337,
          "6acb9625-c60e-47a4-a347-fbe5c2b880c2",
          366085140,
          200
        ],
        [
          1537357115645,
          "6acb9625-c60e-47a4-a347-fbe5c2b880c2",
          301562513,
          200
        ],
        [
          1537357116001,
          "6acb9625-c60e-47a4-a347-fbe5c2b880c2",
          349593495,
          204
        ]
      ],
      "customStats": {},
      "counters": {},
      "concurrency": 0,
      "pendingRequests": 0
    },
    {
      "timestamp": "2018-09-19T11:38:36.091Z",
      "scenariosCreated": 0,
      "scenariosCompleted": 0,
      "requestsCompleted": 0,
      "latency": {
        "min": null,
        "max": null,
        "median": null,
        "p95": null,
        "p99": null
      },
      "rps": {
        "count": 0,
        "mean": null
      },
      "scenarioDuration": {
        "min": null,
        "max": null,
        "median": null,
        "p95": null,
        "p99": null
      },
      "scenarioCounts": {},
      "errors": {},
      "codes": {},
      "matches": 0,
      "latencies": [],
      "customStats": {},
      "counters": {},
      "concurrency": 0,
      "pendingRequests": 0
    }
  ]
}